{
    "Sharper_Axes": {
        "name":"Sharper_Axes",
        "type":"production",
        "purchased": false,
        "amount": 0,
        "cost": {
            "Iron": 30
        },
        "awards": {
            "rates": {
                "Wood":0.15
            }
        }
    }
}